module gitlab.com/dominusmars/utls.git

go 1.15

require (
	github.com/dsnet/compress v0.0.1
	gitlab.com/yawning/bsaes.git v0.0.0-20190805113838-0a714cd429ec
	gitlab.com/yawning/utls.git v0.0.11-1
	golang.org/x/crypto v0.0.0-20201221181555-eec23a3978ad
	golang.org/x/net v0.0.0-20190404232315-eb5bcb51f2a3
)
